datacon_test.vcd
$date
  Sun Jun 10 14:28:23 2018
$end
$version
  GHDL v0
$end
$timescale
  1 fs
$end
$var reg 1 ! rst $end
$var reg 1 " clk $end
$var reg 1 # set $end
$var reg 8 $ data_in[7:0] $end
$var reg 1 % done $end
$var reg 8 & data_out[7:0] $end
$var reg 1 ' endofsim $end
$var reg 2 ( staat[1:0] $end
$scope module u1 $end
$var reg 1 ) rst $end
$var reg 1 * clk $end
$var reg 1 + set $end
$var reg 8 , data_bus[7:0] $end
$var reg 8 - data_out[7:0] $end
$var reg 1 . done $end
$var reg 2 / staat[1:0] $end
$comment currentstate is not handled $end
$comment nextstate is not handled $end
$upscope $end
$enddefinitions $end
#0
1!
1"
0#
b00000000 $
1%
bUUUUUUUU &
0'
b00 (
1)
1*
0+
b00000000 ,
bUUUUUUUU -
1.
b00 /
#10000000000000
0"
0*
bUUUUUUUU -
#20000000000000
0!
1"
0)
1*
#30000000000000
0"
0*
#40000000000000
1"
1*
#50000000000000
0"
0*
#60000000000000
1"
1*
#70000000000000
0"
0*
#80000000000000
1"
1#
b01010101 $
1*
1+
b01010101 ,
#90000000000000
0"
0*
#100000000000000
1"
b00000000 $
0%
b01 (
1*
b00000000 ,
0.
b01 /
#110000000000000
0"
0*
#120000000000000
1"
0#
1%
b00 (
1*
0+
1.
b00 /
#130000000000000
0"
0*
#140000000000000
1"
1*
#150000000000000
0"
0*
#160000000000000
1"
1*
#170000000000000
0"
0*
#180000000000000
1"
1#
b01010101 $
1*
1+
b01010101 ,
#190000000000000
0"
0*
#200000000000000
1"
b00100000 $
0%
b01 (
1*
b00100000 ,
0.
b01 /
#210000000000000
0"
0*
#220000000000000
1"
0#
1%
b00 (
1*
0+
1.
b00 /
#230000000000000
0"
0*
#240000000000000
1"
1*
#250000000000000
0"
0*
#260000000000000
1"
1*
#270000000000000
0"
0*
#280000000000000
1"
1#
b01010101 $
1*
1+
b01010101 ,
#290000000000000
0"
0*
#300000000000000
1"
b01000000 $
0%
b01 (
1*
b01000000 ,
0.
b01 /
#310000000000000
0"
0*
#320000000000000
1"
0#
1%
b00 (
1*
0+
1.
b00 /
#330000000000000
0"
0*
#340000000000000
1"
1*
#350000000000000
0"
0*
#360000000000000
1"
1*
#370000000000000
0"
0*
#380000000000000
1"
1#
b01010101 $
1*
1+
b01010101 ,
#390000000000000
0"
0*
#400000000000000
1"
b01100000 $
0%
b01 (
1*
b01100000 ,
0.
b01 /
#410000000000000
0"
0*
#420000000000000
1"
0#
1%
b00 (
1*
0+
1.
b00 /
#430000000000000
0"
0*
#440000000000000
1"
1*
#450000000000000
0"
0*
#460000000000000
1"
1*
#470000000000000
0"
0*
#480000000000000
1"
1#
b01010101 $
1*
1+
b01010101 ,
#490000000000000
0"
0*
#500000000000000
1"
b10000000 $
0%
b01 (
1*
b10000000 ,
0.
b01 /
#510000000000000
0"
0*
#520000000000000
1"
0#
1%
b00 (
1*
0+
1.
b00 /
#530000000000000
0"
0*
#540000000000000
1"
1*
#550000000000000
0"
0*
#560000000000000
1"
1*
#570000000000000
0"
0*
#580000000000000
1"
1#
b01010101 $
1*
1+
b01010101 ,
#590000000000000
0"
0*
#600000000000000
1"
b10100000 $
0%
b01 (
1*
b10100000 ,
0.
b01 /
#610000000000000
0"
0*
#620000000000000
1"
0#
1%
b00 (
1*
0+
1.
b00 /
#630000000000000
0"
0*
#640000000000000
1"
1*
#650000000000000
0"
0*
#660000000000000
1"
1*
#670000000000000
0"
0*
#680000000000000
1"
1#
b01010101 $
1*
1+
b01010101 ,
#690000000000000
0"
0*
#700000000000000
1"
b11000000 $
0%
b01 (
1*
b11000000 ,
0.
b01 /
#710000000000000
0"
0*
#720000000000000
1"
0#
1%
b00 (
1*
0+
1.
b00 /
#730000000000000
0"
0*
#740000000000000
1"
1*
#750000000000000
0"
0*
#760000000000000
1"
1*
#770000000000000
0"
0*
#780000000000000
1"
1#
b01010101 $
1*
1+
b01010101 ,
#790000000000000
0"
0*
#800000000000000
1"
b11100000 $
0%
b01 (
1*
b11100000 ,
0.
b01 /
#810000000000000
0"
0*
#820000000000000
1"
0#
1%
b00 (
1*
0+
1.
b00 /
#830000000000000
0"
0*
#840000000000000
1"
1*
#850000000000000
0"
0*
#860000000000000
1"
1*
#870000000000000
0"
1'
0*
